Introduction to tidylda
…
## # A tibble: 1 × 5
##   num_topics num_documents num_tokens iterations burnin
##        <int>         <int>      <int>      <dbl>  <dbl>
## 1         10            50       1524        200    175

print(lda)

## A Latent Dirichlet Allocation Model of  10 topics,  50  documents, and  1524  tokens:
## tidylda(data = d1, k = 10, iterations = 200, burnin = 175, alpha = 0.1, 
##     eta = 0.05, optimize_alpha = FALSE, calc_likelihood = TRUE, 
##     calc_r2 = TRUE, return_data = FALSE)
## 
## The model's R-squared is  0.2503 
## The  5  most prevalent topics are:
## # A tibble: 10 × 4
##   topic prevalence coherence top_terms                                          
##   <dbl>      <dbl>     <dbl> <chr>                                              
## 1     4       12.5    0.0527 cdk5, cns, develop, based, lsds, ...               
## 2     3       11.5    0.170  cells, cell, sleep, specific, memory, ...          
## 3     1       11.4    0.114  effects, v4, signaling, stiffening, wall, ...      
## 4     6       10.9    0.348  diabetes, numeracy, redox, extinction, health, ... 
## 5     8       10.7    0.337  cmybp, function, mitochondrial, injury, fragment, …
## # ℹ 5 more rows
## 
## The  5  most coherent topics are:
## # A tibble: 10 × 4
##   topic prevalence coherence top_terms                                          
##   <dbl>      <dbl>     <dbl> <chr>                                              
## 1     6      10.9      0.348 diabetes, numeracy, redox, extinction, health, ... 
## 2     8      10.7      0.337 cmybp, function, mitochondrial, injury, fragment, …
## 3     7      10.3      0.210 cancer, imaging, cells, rb, tumor, ...             
## 4     5       9.13     0.206 program, dcis, cancer, research, disparities, ...  
## 5    10       8.53     0.19  sud, plasticity, risk, factors, brain, ...         
## # ℹ 5 more rows
…
# inspect the individual matrices
tidy_theta <- tidy(lda, matrix = "theta")

tidy_theta

## # A tibble: 500 × 3
##    document topic   theta
##    <chr>    <dbl>   <dbl>
##  1 8574224      1 0.00238
##  2 8574224      2 0.00524
##  3 8574224      3 0.00238
##  4 8574224      4 0.00429
##  5 8574224      5 0.00238
##  6 8574224      6 0.00238
##  7 8574224      7 0.00238
##  8 8574224      8 0.00238
##  9 8574224      9 0.00238
## 10 8574224     10 0.974  
## # ℹ 490 more rows

tidy_beta <- tidy(lda, matrix = "beta")

tidy_beta

## # A tibble: 15,240 × 3
##    topic token             beta
##    <dbl> <chr>            <dbl>
##  1     1 adolescence  0.0025   
##  2     1 age          0.0000648
##  3     1 application  0.0000648
##  4     1 depressive   0.0000648
##  5     1 disorder     0.0000648
##  6     1 emotionality 0.0000648
##  7     1 information  0.0025   
##  8     1 mdd          0.0000648
##  9     1 onset        0.0000648
## 10     1 onset mdd    0.0000648
## # ℹ 15,230 more rows

tidy_lambda <- tidy(lda, matrix = "lambda")

tidy_lambda

## # A tibble: 15,240 × 3
##    topic token         lambda
##    <dbl> <chr>          <dbl>
##  1     1 adolescence  0.304  
##  2     1 age          0.00938
##  3     1 application  0.00794
##  4     1 depressive   0.0206 
##  5     1 disorder     0.0206 
##  6     1 emotionality 0.0206 
##  7     1 information  0.259  
##  8     1 mdd          0.0115 
##  9     1 onset        0.00795
## 10     1 onset mdd    0.0206 
## # ℹ 15,230 more rows

# append observation-level data
augmented_docs <- augment(lda, data = tidy_docs)

## Joining with `by = join_by(document, term, n)`

augmented_docs

## # A tibble: 4,566 × 4
##    document term            n topic
##    <chr>    <chr>       <int> <int>
##  1 8574224  adolescence     1    10
##  2 8646901  adolescence     1    10
##  3 8689019  adolescence     1    10
##  4 8705323  adolescence     1    10
##  5 8574224  age             1    10
##  6 8705323  age             1    10
##  7 8757072  age             1    10
##  8 8823186  age             1    10
##  9 8574224  application     1    10
## 10 8605875  application     1    10
## # ℹ 4,556 more rows
…
## # A tibble: 1 × 5
##   num_topics num_documents num_tokens iterations burnin
##        <int>         <int>      <int>      <dbl>  <dbl>
## 1         10            99       2962        200    175

print(lda2)

## A Latent Dirichlet Allocation Model of  10 topics,  99  documents, and  2962  tokens:
## refit.tidylda(object = lda, new_data = d, iterations = 200, burnin = 175, 
##     calc_likelihood = TRUE, calc_r2 = TRUE)
## 
## The model's R-squared is  0.1389 
## The  5  most prevalent topics are:
## # A tibble: 10 × 4
##   topic prevalence coherence top_terms                                          
##   <dbl>      <dbl>     <dbl> <chr>                                              
## 1     5       14.5    0.107  research, program, cancer, health, disparities, ...
## 2     3       12.6    0.141  cell, cells, lung, sleep, specific, ...            
## 3     1       11.9    0.0616 effects, muscle, wall, v4, signaling, ...          
## 4    10       10.4    0.0499 risk, brain, factors, sud, plasticity, ...         
## 5     2       10.2    0.0305 research, center, microbiome, core, hiv, ...       
## # ℹ 5 more rows
## 
## The  5  most coherent topics are:
## # A tibble: 10 × 4
##   topic prevalence coherence top_terms                                          
##   <dbl>      <dbl>     <dbl> <chr>                                              
## 1     8       7.34     0.326 cmybp, function, mitochondrial, injury, fragment, …
## 2     9       7.55     0.187 core, data, ppg, studies, imaging, ...             
## 3     7       9.9      0.159 cancer, tumor, clinical, imaging, cells, ...       
## 4     3      12.6      0.141 cell, cells, lung, sleep, specific, ...            
## 5     5      14.5      0.107 research, program, cancer, health, disparities, ...
## # ℹ 5 more rows

# how does that compare to the old model?
print(lda)

## A Latent Dirichlet Allocation Model of  10 topics,  50  documents, and  1524  tokens:
## tidylda(data = d1, k = 10, iterations = 200, burnin = 175, alpha = 0.1, 
##     eta = 0.05, optimize_alpha = FALSE, calc_likelihood = TRUE, 
##     calc_r2 = TRUE, return_data = FALSE)
## 
## The model's R-squared is  0.2503 
## The  5  most prevalent topics are:
## # A tibble: 10 × 4
##   topic prevalence coherence top_terms                                          
##   <dbl>      <dbl>     <dbl> <chr>                                              
## 1     4       12.5    0.0527 cdk5, cns, develop, based, lsds, ...               
## 2     3       11.5    0.170  cells, cell, sleep, specific, memory, ...          
## 3     1       11.4    0.114  effects, v4, signaling, stiffening, wall, ...      
## 4     6       10.9    0.348  diabetes, numeracy, redox, extinction, health, ... 
## 5     8       10.7    0.337  cmybp, function, mitochondrial, injury, fragment, …
## # ℹ 5 more rows
## 
## The  5  most coherent topics are:
## # A tibble: 10 × 4
##   topic prevalence coherence top_terms                                          
##   <dbl>      <dbl>     <dbl> <chr>                                              
## 1     6      10.9      0.348 diabetes, numeracy, redox, extinction, health, ... 
## 2     8      10.7      0.337 cmybp, function, mitochondrial, injury, fragment, …
## 3     7      10.3      0.210 cancer, imaging, cells, rb, tumor, ...             
## 4     5       9.13     0.206 program, dcis, cancer, research, disparities, ...  
## 5    10       8.53     0.19  sud, plasticity, risk, factors, brain, ...         
## # ℹ 5 more rows
…
